{
  "tracks": [
    {
      "id": 1,
      "track_name": "Hallelujah",
      "artist_name": "Leonard Cohen",
      "album_name": "Various Positions",
      "album_cover": "https://img.apmcdn.org/03d896bc5d29bca456e6181c782b92a7d973c87f/square/ef6af3-20161121-leonard-cohen-various-positions.jpg",
      "date_added": 1575219037592
    },
    {
      "id": 8,
      "track_name": "Dance Me to the End of Love",
      "artist_name": "Leonard Cohen",
      "album_name": "Various Positions",
      "album_cover": "https://img.apmcdn.org/03d896bc5d29bca456e6181c782b92a7d973c87f/square/ef6af3-20161121-leonard-cohen-various-positions.jpg",
      "date_added": 1575219038592
    },
    {
      "id": 2,
      "track_name": "Don't think twice, it's alright",
      "artist_name": "Bob Dylan",
      "album_name": "The Freewheelin' Bob Dylan",
      "album_cover": "https://townsquare.media/site/295/files/2015/05/Bob-Dylan-The-Freewheelin-Bob-Dylan-Photo.jpg?w=980&q=75",
      "date_added": 1575219089973
    },
    {
      "track_name": "Halloween Parade",
      "artist_name": "Lou Reed",
      "album_name": "New York",
      "album_cover": "https://images-na.ssl-images-amazon.com/images/I/81XV9CoyCoL._SL1425_.jpg",
      "date_added": 1575220222986,
      "id": 5
    }
  ],
  "lyrics": [
    {
      "id": 1,
      "lyrics": "Well I've heard there was a secret chord\nThat David played and it pleased the Lord\nBut you don't really care for music, do you?\nWell it goes like this:\nThe fourth, the fifth, the minor fall and the major lift\nThe baffled king composing Hallelujah\nHallelujah\nHallelujah\nHallelujah\nHallelujah\nWell your faith was strong but you needed proof\nYou saw her bathing on the roof\nHer beauty and the moonlight overthrew ya\nShe tied you to her kitchen chair\nAnd she broke your throne and she cut your hair\nAnd from your lips she drew the Hallelujah\nHallelujah\nHallelujah\nHallelujah\nHallelujah\nBut baby I've been here before\nI've seen this room and I've walked this floor\nYou know, I used to live alone before I knew ya\nAnd I've seen your flag on the marble arch\nAnd love is not a victory march\nIt's a cold and it's a broken Hallelujah\nHallelujah\nHallelujah\nHallelujah\nHallelujah\nWell there was a time when you let me know\nWhat's really going on below\nBut now you never show that to me do ya\nBut remember when I moved in you\nAnd the holy dove was moving too\nAnd every breath we drew was Hallelujah\nHallelujah\nHallelujah\nHallelujah\nHallelujah\nMaybe there's a God above\nBut all I've ever learned from love\nWas how to shoot somebody who outdrew ya\nAnd it's not a cry that you hear at night\nIt's not somebody who's seen the light\nIt's a cold and it's a broken Hallelujah"
    },
    {
      "id": 2,
      "lyrics": "Well it ain't no use to sit and wonder why, babe\nIfin' you don't know by now\nAn' it ain't no use to sit and wonder why, babe\nIt'll never do some how\nWhen your rooster crows at the break a dawn\nLook out your window and I'll be gone\nYou're the reason I'm trav'lin' on\nDon't think twice, it's all right\nAnd it ain't no use in a-turnin' on your light, babe\nThe light I never knowed\nAn' it ain't no use in turnin' on your light, babe\nI'm on the dark side of the road\nBut I wish there was somethin' you would do or say\nTo try and make me change my mind and stay\nWe never did too much talkin' anyway\nBut don't think twice, it's all right\nNo it ain't no use in callin' out my name, gal\nLike you never done before\nAnd it ain't no use in callin' out my name, gal\nI can't hear ya any more\nI'm a-thinkin' and a-wond'rin' wallkin' way down the road\nI once loved a woman, a child I am told\nI give her my heart but she wanted my soul\nBut don't think twice, it's all right\nSo long honey babe\nWhere I'm bound, I can't tell\nGoodbye is too good a word, babe\nSo I just say fare thee well\nI ain't sayin' you treated me unkind\nYou could have done better but I don't mind\nYou just kinda wasted my precious time\nBut don't think twice, it's all right"
    }
  ]
}